<?xml version="1.0" encoding="UTF-8" standalone="no"?>
<!-- Created with Inkscape (http://www.inkscape.org/) -->

<svg
   xmlns:dc="http://purl.org/dc/elements/1.1/"
   xmlns:cc="http://creativecommons.org/ns#"
   xmlns:rdf="http://www.w3.org/1999/02/22-rdf-syntax-ns#"
   xmlns:svg="http://www.w3.org/2000/svg"
   xmlns="http://www.w3.org/2000/svg"
   xmlns:sodipodi="http://sodipodi.sourceforge.net/DTD/sodipodi-0.dtd"
   xmlns:inkscape="http://www.inkscape.org/namespaces/inkscape"
   version="1.1"
   id="svg2"
   xml:space="preserve"
   width="512"
   height="512"
   viewBox="0 0 511.99996 512"
   sodipodi:docname="volume_up.svg"
   inkscape:version="0.92.4 (5da689c313, 2019-01-14)"
   inkscape:export-filename="/home/trlinux/milis-gtk-theme/playmount-milis/milis-acik/logo.png"
   inkscape:export-xdpi="96"
   inkscape:export-ydpi="96"><metadata
     id="metadata8"><rdf:RDF><cc:Work
         rdf:about=""><dc:format>image/svg+xml</dc:format><dc:type
           rdf:resource="http://purl.org/dc/dcmitype/StillImage" /><dc:title /></cc:Work></rdf:RDF></metadata><defs
     id="defs6"><clipPath
       clipPathUnits="userSpaceOnUse"
       id="clipPath18"><path
         d="M 0,800 H 800 V 0 H 0 Z"
         id="path16"
         inkscape:connector-curvature="0" /></clipPath><clipPath
       clipPathUnits="userSpaceOnUse"
       id="clipPath3426"><path
         d="M 0,800 H 800 V 0 H 0 Z"
         id="path3424"
         inkscape:connector-curvature="0" /></clipPath></defs><sodipodi:namedview
     pagecolor="#ffffff"
     bordercolor="#666666"
     borderopacity="1"
     objecttolerance="10"
     gridtolerance="10"
     guidetolerance="10"
     inkscape:pageopacity="0"
     inkscape:pageshadow="2"
     inkscape:window-width="1920"
     inkscape:window-height="1055"
     id="namedview4"
     showgrid="false"
     inkscape:zoom="0.45254834"
     inkscape:cx="568.51343"
     inkscape:cy="-93.137735"
     inkscape:window-x="0"
     inkscape:window-y="0"
     inkscape:window-maximized="1"
     inkscape:current-layer="g10" /><g
     id="g10"
     inkscape:groupmode="layer"
     inkscape:label="14669-NPP3OF"
     transform="matrix(1.3333333,0,0,-1.3333333,0,512)"><path
       style="fill:#cfd0c2;stroke-width:0.67105168;fill-opacity:1"
       d="m 114.22444,63.837288 c -12.86008,2.83022 -24.358398,11.939891 -30.071195,23.824236 -3.614427,7.519091 -4.6989,12.280043 -4.651784,20.421786 0.07095,12.2582 4.05028,21.6917 12.896477,30.57265 6.548453,6.57418 12.294742,9.94458 20.557862,12.05793 9.75032,2.49372 21.90744,1.29508 30.37273,-2.99461 1.86851,-0.94684 3.55832,-1.72154 3.75513,-1.72154 0.19681,0 0.35783,29.08062 0.35783,64.62363 v 64.62362 l 74.31898,21.36451 c 40.87543,11.75048 76.2136,21.90714 78.52925,22.57037 l 4.21029,1.20589 -0.18398,-91.05256 -0.18397,-91.05256 -1.82822,-5.36842 c -4.8034,-14.10474 -15.10708,-24.60336 -28.70463,-29.24769 -5.89846,-2.01465 -17.92054,-2.52702 -24.28196,-1.03486 -19.9124,4.67073 -34.14479,22.54567 -34.26335,43.03254 -0.0467,8.07639 1.03655,12.90338 4.518,20.13155 5.17855,10.75168 14.11591,18.63163 25.76412,22.71583 5.12809,1.79805 6.65684,2.02921 13.50005,2.04129 8.7539,0.0155 14.20679,-1.13805 20.29931,-4.2941 l 3.85855,-1.99881 v 38.24481 c 0,24.64483 -0.2349,38.24481 -0.66057,38.24481 -0.36332,0 -25.85349,-7.24735 -56.64482,-16.10524 -30.79133,-8.85788 -56.15175,-16.10524 -56.3565,-16.10524 -0.20474,0 -0.45871,-29.06494 -0.56438,-64.58874 l -0.19214,-64.58873 -1.56716,-4.697363 c -2.55734,-7.665264 -5.86804,-12.944983 -11.78393,-18.792349 -5.7309,-5.664536 -10.44645,-8.592855 -17.82003,-11.066102 -5.79221,-1.942819 -16.68087,-2.396844 -23.17996,-0.966538 z"
       id="path836"
       inkscape:connector-curvature="0" /></g></svg>